[
  {
    "name": "T Shirt",
    "folder": "shirt",
    "materials": [
      { "name": "Darkness", "folder": "black", "color": "#121212" },
      { "name": "Lightness", "folder": "white", "color": "white" }
    ],
    "targetArea": {
      "size": { "width": 2048, "height": 2048 },
      "bounds": [
        { "x": 200, "y": 1040 },
        { "x": 976, "y": 1827 }
      ]
    }
  },
  {
    "name": "Banger",
    "folder": "gun"
  }
]
